…
## **left_join()** y **right_join()**

Al contrario que con **inner_join()**, estas dos funciones se usarán cuando queremos mantener todos los datos de una tabla aunque no estén presentes en la otra. La diferencia es que **left_join()** hace referencia a la tabla que llega por la izquierda, es decir, la primera tabla, mientras **right_join()** hace referencia a la tabla de la derecha, la segunda. Lo veremos más fácilmente con dos ejemplos. En este caso queremos usar la tabla de **results_filt** generada anteriormente pero queremos unirle la tabla completa de **gene_info**. Para ello usaremos la función **right_join()**. Lo que ocurre es que nos genera una tabla con todos los genes de **gene_info** (tabla de la derecha) añadiendo NAs a las columnas de **results_filt** de las que no se dispone información.

```{r}
results_filt %>%
  right_join(gene_info,by = c("gene" = "ensembl_gene_id")) %>%
  as_tibble()

# # A tibble: 38,871 x 9
# baseMean log2FoldChange lfcSE  stat pvalue  padj gene            hgnc_symbol chromosome_name
# <dbl>          <dbl> <dbl> <dbl>  <dbl> <dbl> <chr>           <chr>       <chr>          
#   1    1.08            2.12  1.12 1.90  0.0577  1.00 ENSG00000006659 LGALS14     19             
# 2    0.515           2.29  1.24 1.85  0.0643  1.00 ENSG00000007866 TEAD3       6              
# 3    0.625           2.16  1.21 1.79  0.0741  1.00 ENSG00000021488 SLC7A9      19             
# 4    6.19            2.33  1.08 2.16  0.0306  1.00 ENSG00000064300 NGFR        17             
# 5    1.37            3.13  1.23 2.54  0.0111  1.00 ENSG00000100191 SLC5A4      22             
# 6    1.54            3.29  1.53 2.15  0.0313  1.00 ENSG00000102271 KLHL4       X              
# 7    0.586           2.48  1.73 1.43  0.152   1.00 ENSG00000104055 TGM5        15             
# 8    0.373           2.01  2.18 0.920 0.357   1.00 ENSG00000104723 TUSC3       8              
# 9    2.35            2.45  1.45 1.69  0.0918  1.00 ENSG00000105131 EPHX3       19             
# 10    0.445           2.34  1.99 1.18  0.239   1.00 ENSG00000106006 HOXA6       7              
# # ... with 38,861 more rows
```

Como se puede apreciar, el resultado genera una tabla de más de 38.000 filas, cuando la tabla de **results_filt** solo tenía 125.

La función **left_join()** funciona exactamente igual pero en priorizando la primera tabla en vez de la segunda.

```{r}
gene_info %>%
  left_join(results_filt,by = c("ensembl_gene_id" = "gene")) %>%
  as_tibble()

# # A tibble: 38,871 x 9
# ensembl_gene_id hgnc_symbol chromosome_name baseMean log2FoldChange lfcSE  stat pvalue  padj
# <chr>           <chr>       <chr>              <dbl>          <dbl> <dbl> <dbl>  <dbl> <dbl>
#   1 ENSG00000000003 TSPAN6      X                     NA             NA    NA    NA     NA    NA
# 2 ENSG00000000419 DPM1        20                    NA             NA    NA    NA     NA    NA
# 3 ENSG00000000457 SCYL3       1                     NA             NA    NA    NA     NA    NA
# 4 ENSG00000000460 C1orf112    1                     NA             NA    NA    NA     NA    NA
# 5 ENSG00000000938 FGR         1                     NA             NA    NA    NA     NA    NA
# 6 ENSG00000000971 CFH         1                     NA             NA    NA    NA     NA    NA
# 7 ENSG00000001036 FUCA2       6                     NA             NA    NA    NA     NA    NA
# 8 ENSG00000001084 GCLC        6                     NA             NA    NA    NA     NA    NA
# 9 ENSG00000001167 NFYA        6                     NA             NA    NA    NA     NA    NA
# 10 ENSG00000001460 STPG1       1                     NA             NA    NA    NA     NA    NA
# # ... with 38,861 more rows
```

El reusltado es exactamente el mismo.

## **full_join()**

La última función que veremos es **full_join()**. Esta función se encarga de unir ambas tablas sin tener en cuenta las filas que comparten. Tanto por izquierda como por derecha introducirá NAs en las filas que no compartan un mismo valor. Lo veremos cuando nos fijemos en la parte delantera y trasera de la tabla final.

```{r}
results_filt %>%
  full_join(gene_info_filt, by = c("gene" = "ensembl_gene_id")) %>%
  as_tibble()

# # A tibble: 1,434 x 9
# baseMean log2FoldChange lfcSE  stat pvalue  padj gene            hgnc_symbol chromosome_name
# <dbl>          <dbl> <dbl> <dbl>  <dbl> <dbl> <chr>           <chr>       <chr>          
#   1    1.08            2.12  1.12 1.90  0.0577  1.00 ENSG00000006659 NA          NA             
# 2    0.515           2.29  1.24 1.85  0.0643  1.00 ENSG00000007866 NA          NA             
# 3    0.625           2.16  1.21 1.79  0.0741  1.00 ENSG00000021488 NA          NA             
# 4    6.19            2.33  1.08 2.16  0.0306  1.00 ENSG00000064300 NA          NA             
# 5    1.37            3.13  1.23 2.54  0.0111  1.00 ENSG00000100191 NA          NA             
# 6    1.54            3.29  1.53 2.15  0.0313  1.00 ENSG00000102271 KLHL4       X              
# 7    0.586           2.48  1.73 1.43  0.152   1.00 ENSG00000104055 NA          NA             
# 8    0.373           2.01  2.18 0.920 0.357   1.00 ENSG00000104723 NA          NA             
# 9    2.35            2.45  1.45 1.69  0.0918  1.00 ENSG00000105131 NA          NA             
# 10    0.445           2.34  1.99 1.18  0.239   1.00 ENSG00000106006 NA          NA             
# # ... with 1,424 more rows
…
